Project 2: Data Mining, Classification, Prediction
…
library(tidyverse)
library(fivethirtyeight)
data()

airline_safety1 <- airline_safety %>% select(-incidents_85_99, 
    -fatal_accidents_85_99, -fatalities_85_99)
airline_safety1

## # A tibble: 56 x 6
##    airline incl_reg_subsid avail_seat_km_p incidents_00_14 fatal_accidents
##    <chr>   <lgl>                       <dbl>           <int>            <int>
##  1 Aer Li FALSE                   320906734               0                0
##  2 Aerofl TRUE                   1197672318               6                1
##  3 Aeroli FALSE                   385803648               1                0
##  4 Aerome TRUE                    596871813               5                0
##  5 Air Ca FALSE                  1865253802               2                0
##  6 Air Fr FALSE                  3004002661               6                2
##  7 Air In TRUE                    869253552               4                1
##  8 Air Ne TRUE                    710174817               5                1
##  9 Alaska TRUE                    965346773               5                1
## 10 Alital FALSE                   698012498               4                0
## #  with 46 more rows, and 1 more variable: fatalities_00_14 <int>
…
